{
	"world": "world.json",
	"actors": "actors.json",
	"dwarfconfig": "dwarf-config.json",
	"orcconfig": "orc-config.json",
	"terrainconfig": "terrain.json",
	"grandhallconfig": "grand-hall.json",
	"blacksmithconfig": "blacksmith-config.json",
	"apothecaryconfig": "apothecary-config.json",
	"spawnconfig": "spawn-config.json",
	"objects": "objects.json",
	"menus": "menu-config.json"
}